…
### Ответ: brown

## Задание 11

### Подсчитать среднюю длину имени в каждой расе вселенной Звездных войн.

``` {r}
a <- filter(starwars, name != 'NA', species != 'NA')
b <- select(a, name, species)
c <- group_by(b, species)
summarise(c, AvgLenName = mean(nchar(name)))
```

    # A tibble: 37 × 2
       species   AvgLenName
       <chr>          <dbl>
     1 Aleena         13   
     2 Besalisk       15   
     3 Cerean         12   
     4 Chagrian       10   
     5 Clawdite       10   
     6 Droid           4.83
     7 Dug             7   
     8 Ewok           21   
     9 Geonosian      17   
    10 Gungan         11.7 
    # ℹ 27 more rows
…
